%TF.GenerationSoftware,KiCad,Pcbnew,7.0.8*%
%TF.CreationDate,2023-10-19T22:29:07-04:00*%
%TF.ProjectId,power,706f7765-722e-46b6-9963-61645f706362,rev?*%
%TF.SameCoordinates,Original*%
%TF.FileFunction,Drillmap*%
%TF.FilePolarity,Positive*%
%FSLAX45Y45*%
G04 Gerber Fmt 4.5, Leading zero omitted, Abs format (unit mm)*
G04 Created by KiCad (PCBNEW 7.0.8) date 2023-10-19 22:29:07*
%MOMM*%
%LPD*%
G01*
G04 APERTURE LIST*
%ADD10C,0.100000*%
%ADD11C,0.200000*%
%ADD12C,0.350000*%
%ADD13C,0.550000*%
G04 APERTURE END LIST*
D10*
X8788399Y-10057911D02*
G75*
G03*
X8991600Y-10261111I203201J1D01*
G01*
X14884400Y-6908800D02*
X14884400Y-10057911D01*
X14681200Y-10261110D02*
G75*
G03*
X14884400Y-10057911I0J203200D01*
G01*
X14681200Y-10261111D02*
X8991600Y-10261111D01*
X14884400Y-6908800D02*
G75*
G03*
X14681200Y-6705600I-203200J0D01*
G01*
X8991600Y-6705600D02*
G75*
G03*
X8788400Y-6908800I0J-203200D01*
G01*
X8788400Y-10057911D02*
X8788400Y-6908800D01*
X8991600Y-6705600D02*
X14681200Y-6705600D01*
D11*
D12*
X11496300Y-9070356D02*
X11846300Y-9420356D01*
X11846300Y-9070356D02*
X11496300Y-9420356D01*
D13*
X9533300Y-9245356D02*
G75*
G03*
X9533300Y-9245356I-275000J0D01*
G01*
D11*
X9044177Y-10577595D02*
X9044177Y-10377595D01*
X9044177Y-10377595D02*
X9091796Y-10377595D01*
X9091796Y-10377595D02*
X9120367Y-10387119D01*
X9120367Y-10387119D02*
X9139415Y-10406167D01*
X9139415Y-10406167D02*
X9148939Y-10425214D01*
X9148939Y-10425214D02*
X9158463Y-10463309D01*
X9158463Y-10463309D02*
X9158463Y-10491881D01*
X9158463Y-10491881D02*
X9148939Y-10529976D01*
X9148939Y-10529976D02*
X9139415Y-10549024D01*
X9139415Y-10549024D02*
X9120367Y-10568071D01*
X9120367Y-10568071D02*
X9091796Y-10577595D01*
X9091796Y-10577595D02*
X9044177Y-10577595D01*
X9244177Y-10577595D02*
X9244177Y-10444262D01*
X9244177Y-10482357D02*
X9253701Y-10463309D01*
X9253701Y-10463309D02*
X9263224Y-10453786D01*
X9263224Y-10453786D02*
X9282272Y-10444262D01*
X9282272Y-10444262D02*
X9301320Y-10444262D01*
X9367986Y-10577595D02*
X9367986Y-10444262D01*
X9367986Y-10377595D02*
X9358463Y-10387119D01*
X9358463Y-10387119D02*
X9367986Y-10396643D01*
X9367986Y-10396643D02*
X9377510Y-10387119D01*
X9377510Y-10387119D02*
X9367986Y-10377595D01*
X9367986Y-10377595D02*
X9367986Y-10396643D01*
X9491796Y-10577595D02*
X9472748Y-10568071D01*
X9472748Y-10568071D02*
X9463224Y-10549024D01*
X9463224Y-10549024D02*
X9463224Y-10377595D01*
X9596558Y-10577595D02*
X9577510Y-10568071D01*
X9577510Y-10568071D02*
X9567986Y-10549024D01*
X9567986Y-10549024D02*
X9567986Y-10377595D01*
X9825129Y-10577595D02*
X9825129Y-10377595D01*
X9825129Y-10377595D02*
X9891796Y-10520452D01*
X9891796Y-10520452D02*
X9958463Y-10377595D01*
X9958463Y-10377595D02*
X9958463Y-10577595D01*
X10139415Y-10577595D02*
X10139415Y-10472833D01*
X10139415Y-10472833D02*
X10129891Y-10453786D01*
X10129891Y-10453786D02*
X10110844Y-10444262D01*
X10110844Y-10444262D02*
X10072748Y-10444262D01*
X10072748Y-10444262D02*
X10053701Y-10453786D01*
X10139415Y-10568071D02*
X10120367Y-10577595D01*
X10120367Y-10577595D02*
X10072748Y-10577595D01*
X10072748Y-10577595D02*
X10053701Y-10568071D01*
X10053701Y-10568071D02*
X10044177Y-10549024D01*
X10044177Y-10549024D02*
X10044177Y-10529976D01*
X10044177Y-10529976D02*
X10053701Y-10510929D01*
X10053701Y-10510929D02*
X10072748Y-10501405D01*
X10072748Y-10501405D02*
X10120367Y-10501405D01*
X10120367Y-10501405D02*
X10139415Y-10491881D01*
X10234653Y-10444262D02*
X10234653Y-10644262D01*
X10234653Y-10453786D02*
X10253701Y-10444262D01*
X10253701Y-10444262D02*
X10291796Y-10444262D01*
X10291796Y-10444262D02*
X10310844Y-10453786D01*
X10310844Y-10453786D02*
X10320367Y-10463309D01*
X10320367Y-10463309D02*
X10329891Y-10482357D01*
X10329891Y-10482357D02*
X10329891Y-10539500D01*
X10329891Y-10539500D02*
X10320367Y-10558548D01*
X10320367Y-10558548D02*
X10310844Y-10568071D01*
X10310844Y-10568071D02*
X10291796Y-10577595D01*
X10291796Y-10577595D02*
X10253701Y-10577595D01*
X10253701Y-10577595D02*
X10234653Y-10568071D01*
X10415605Y-10558548D02*
X10425129Y-10568071D01*
X10425129Y-10568071D02*
X10415605Y-10577595D01*
X10415605Y-10577595D02*
X10406082Y-10568071D01*
X10406082Y-10568071D02*
X10415605Y-10558548D01*
X10415605Y-10558548D02*
X10415605Y-10577595D01*
X10415605Y-10453786D02*
X10425129Y-10463309D01*
X10425129Y-10463309D02*
X10415605Y-10472833D01*
X10415605Y-10472833D02*
X10406082Y-10463309D01*
X10406082Y-10463309D02*
X10415605Y-10453786D01*
X10415605Y-10453786D02*
X10415605Y-10472833D01*
X8583400Y-10806111D02*
X8783400Y-11006111D01*
X8783400Y-10806111D02*
X8583400Y-11006111D01*
X9025129Y-10797595D02*
X9148939Y-10797595D01*
X9148939Y-10797595D02*
X9082272Y-10873786D01*
X9082272Y-10873786D02*
X9110844Y-10873786D01*
X9110844Y-10873786D02*
X9129891Y-10883309D01*
X9129891Y-10883309D02*
X9139415Y-10892833D01*
X9139415Y-10892833D02*
X9148939Y-10911881D01*
X9148939Y-10911881D02*
X9148939Y-10959500D01*
X9148939Y-10959500D02*
X9139415Y-10978548D01*
X9139415Y-10978548D02*
X9129891Y-10988071D01*
X9129891Y-10988071D02*
X9110844Y-10997595D01*
X9110844Y-10997595D02*
X9053701Y-10997595D01*
X9053701Y-10997595D02*
X9034653Y-10988071D01*
X9034653Y-10988071D02*
X9025129Y-10978548D01*
X9234653Y-10978548D02*
X9244177Y-10988071D01*
X9244177Y-10988071D02*
X9234653Y-10997595D01*
X9234653Y-10997595D02*
X9225129Y-10988071D01*
X9225129Y-10988071D02*
X9234653Y-10978548D01*
X9234653Y-10978548D02*
X9234653Y-10997595D01*
X9425129Y-10797595D02*
X9329891Y-10797595D01*
X9329891Y-10797595D02*
X9320367Y-10892833D01*
X9320367Y-10892833D02*
X9329891Y-10883309D01*
X9329891Y-10883309D02*
X9348939Y-10873786D01*
X9348939Y-10873786D02*
X9396558Y-10873786D01*
X9396558Y-10873786D02*
X9415605Y-10883309D01*
X9415605Y-10883309D02*
X9425129Y-10892833D01*
X9425129Y-10892833D02*
X9434653Y-10911881D01*
X9434653Y-10911881D02*
X9434653Y-10959500D01*
X9434653Y-10959500D02*
X9425129Y-10978548D01*
X9425129Y-10978548D02*
X9415605Y-10988071D01*
X9415605Y-10988071D02*
X9396558Y-10997595D01*
X9396558Y-10997595D02*
X9348939Y-10997595D01*
X9348939Y-10997595D02*
X9329891Y-10988071D01*
X9329891Y-10988071D02*
X9320367Y-10978548D01*
X9558463Y-10797595D02*
X9577510Y-10797595D01*
X9577510Y-10797595D02*
X9596558Y-10807119D01*
X9596558Y-10807119D02*
X9606082Y-10816643D01*
X9606082Y-10816643D02*
X9615605Y-10835690D01*
X9615605Y-10835690D02*
X9625129Y-10873786D01*
X9625129Y-10873786D02*
X9625129Y-10921405D01*
X9625129Y-10921405D02*
X9615605Y-10959500D01*
X9615605Y-10959500D02*
X9606082Y-10978548D01*
X9606082Y-10978548D02*
X9596558Y-10988071D01*
X9596558Y-10988071D02*
X9577510Y-10997595D01*
X9577510Y-10997595D02*
X9558463Y-10997595D01*
X9558463Y-10997595D02*
X9539415Y-10988071D01*
X9539415Y-10988071D02*
X9529891Y-10978548D01*
X9529891Y-10978548D02*
X9520367Y-10959500D01*
X9520367Y-10959500D02*
X9510844Y-10921405D01*
X9510844Y-10921405D02*
X9510844Y-10873786D01*
X9510844Y-10873786D02*
X9520367Y-10835690D01*
X9520367Y-10835690D02*
X9529891Y-10816643D01*
X9529891Y-10816643D02*
X9539415Y-10807119D01*
X9539415Y-10807119D02*
X9558463Y-10797595D01*
X9748939Y-10797595D02*
X9767986Y-10797595D01*
X9767986Y-10797595D02*
X9787034Y-10807119D01*
X9787034Y-10807119D02*
X9796558Y-10816643D01*
X9796558Y-10816643D02*
X9806082Y-10835690D01*
X9806082Y-10835690D02*
X9815605Y-10873786D01*
X9815605Y-10873786D02*
X9815605Y-10921405D01*
X9815605Y-10921405D02*
X9806082Y-10959500D01*
X9806082Y-10959500D02*
X9796558Y-10978548D01*
X9796558Y-10978548D02*
X9787034Y-10988071D01*
X9787034Y-10988071D02*
X9767986Y-10997595D01*
X9767986Y-10997595D02*
X9748939Y-10997595D01*
X9748939Y-10997595D02*
X9729891Y-10988071D01*
X9729891Y-10988071D02*
X9720367Y-10978548D01*
X9720367Y-10978548D02*
X9710844Y-10959500D01*
X9710844Y-10959500D02*
X9701320Y-10921405D01*
X9701320Y-10921405D02*
X9701320Y-10873786D01*
X9701320Y-10873786D02*
X9710844Y-10835690D01*
X9710844Y-10835690D02*
X9720367Y-10816643D01*
X9720367Y-10816643D02*
X9729891Y-10807119D01*
X9729891Y-10807119D02*
X9748939Y-10797595D01*
X9901320Y-10997595D02*
X9901320Y-10864262D01*
X9901320Y-10883309D02*
X9910844Y-10873786D01*
X9910844Y-10873786D02*
X9929891Y-10864262D01*
X9929891Y-10864262D02*
X9958463Y-10864262D01*
X9958463Y-10864262D02*
X9977510Y-10873786D01*
X9977510Y-10873786D02*
X9987034Y-10892833D01*
X9987034Y-10892833D02*
X9987034Y-10997595D01*
X9987034Y-10892833D02*
X9996558Y-10873786D01*
X9996558Y-10873786D02*
X10015605Y-10864262D01*
X10015605Y-10864262D02*
X10044177Y-10864262D01*
X10044177Y-10864262D02*
X10063225Y-10873786D01*
X10063225Y-10873786D02*
X10072748Y-10892833D01*
X10072748Y-10892833D02*
X10072748Y-10997595D01*
X10167986Y-10997595D02*
X10167986Y-10864262D01*
X10167986Y-10883309D02*
X10177510Y-10873786D01*
X10177510Y-10873786D02*
X10196558Y-10864262D01*
X10196558Y-10864262D02*
X10225129Y-10864262D01*
X10225129Y-10864262D02*
X10244177Y-10873786D01*
X10244177Y-10873786D02*
X10253701Y-10892833D01*
X10253701Y-10892833D02*
X10253701Y-10997595D01*
X10253701Y-10892833D02*
X10263225Y-10873786D01*
X10263225Y-10873786D02*
X10282272Y-10864262D01*
X10282272Y-10864262D02*
X10310844Y-10864262D01*
X10310844Y-10864262D02*
X10329891Y-10873786D01*
X10329891Y-10873786D02*
X10339415Y-10892833D01*
X10339415Y-10892833D02*
X10339415Y-10997595D01*
X10729891Y-10788071D02*
X10558463Y-11045214D01*
X10987034Y-10797595D02*
X11006082Y-10797595D01*
X11006082Y-10797595D02*
X11025129Y-10807119D01*
X11025129Y-10807119D02*
X11034653Y-10816643D01*
X11034653Y-10816643D02*
X11044177Y-10835690D01*
X11044177Y-10835690D02*
X11053701Y-10873786D01*
X11053701Y-10873786D02*
X11053701Y-10921405D01*
X11053701Y-10921405D02*
X11044177Y-10959500D01*
X11044177Y-10959500D02*
X11034653Y-10978548D01*
X11034653Y-10978548D02*
X11025129Y-10988071D01*
X11025129Y-10988071D02*
X11006082Y-10997595D01*
X11006082Y-10997595D02*
X10987034Y-10997595D01*
X10987034Y-10997595D02*
X10967987Y-10988071D01*
X10967987Y-10988071D02*
X10958463Y-10978548D01*
X10958463Y-10978548D02*
X10948939Y-10959500D01*
X10948939Y-10959500D02*
X10939415Y-10921405D01*
X10939415Y-10921405D02*
X10939415Y-10873786D01*
X10939415Y-10873786D02*
X10948939Y-10835690D01*
X10948939Y-10835690D02*
X10958463Y-10816643D01*
X10958463Y-10816643D02*
X10967987Y-10807119D01*
X10967987Y-10807119D02*
X10987034Y-10797595D01*
X11139415Y-10978548D02*
X11148939Y-10988071D01*
X11148939Y-10988071D02*
X11139415Y-10997595D01*
X11139415Y-10997595D02*
X11129891Y-10988071D01*
X11129891Y-10988071D02*
X11139415Y-10978548D01*
X11139415Y-10978548D02*
X11139415Y-10997595D01*
X11339415Y-10997595D02*
X11225129Y-10997595D01*
X11282272Y-10997595D02*
X11282272Y-10797595D01*
X11282272Y-10797595D02*
X11263225Y-10826167D01*
X11263225Y-10826167D02*
X11244177Y-10845214D01*
X11244177Y-10845214D02*
X11225129Y-10854738D01*
X11406082Y-10797595D02*
X11529891Y-10797595D01*
X11529891Y-10797595D02*
X11463225Y-10873786D01*
X11463225Y-10873786D02*
X11491796Y-10873786D01*
X11491796Y-10873786D02*
X11510844Y-10883309D01*
X11510844Y-10883309D02*
X11520367Y-10892833D01*
X11520367Y-10892833D02*
X11529891Y-10911881D01*
X11529891Y-10911881D02*
X11529891Y-10959500D01*
X11529891Y-10959500D02*
X11520367Y-10978548D01*
X11520367Y-10978548D02*
X11510844Y-10988071D01*
X11510844Y-10988071D02*
X11491796Y-10997595D01*
X11491796Y-10997595D02*
X11434653Y-10997595D01*
X11434653Y-10997595D02*
X11415606Y-10988071D01*
X11415606Y-10988071D02*
X11406082Y-10978548D01*
X11596558Y-10797595D02*
X11729891Y-10797595D01*
X11729891Y-10797595D02*
X11644177Y-10997595D01*
X11834653Y-10883309D02*
X11815606Y-10873786D01*
X11815606Y-10873786D02*
X11806082Y-10864262D01*
X11806082Y-10864262D02*
X11796558Y-10845214D01*
X11796558Y-10845214D02*
X11796558Y-10835690D01*
X11796558Y-10835690D02*
X11806082Y-10816643D01*
X11806082Y-10816643D02*
X11815606Y-10807119D01*
X11815606Y-10807119D02*
X11834653Y-10797595D01*
X11834653Y-10797595D02*
X11872748Y-10797595D01*
X11872748Y-10797595D02*
X11891796Y-10807119D01*
X11891796Y-10807119D02*
X11901320Y-10816643D01*
X11901320Y-10816643D02*
X11910844Y-10835690D01*
X11910844Y-10835690D02*
X11910844Y-10845214D01*
X11910844Y-10845214D02*
X11901320Y-10864262D01*
X11901320Y-10864262D02*
X11891796Y-10873786D01*
X11891796Y-10873786D02*
X11872748Y-10883309D01*
X11872748Y-10883309D02*
X11834653Y-10883309D01*
X11834653Y-10883309D02*
X11815606Y-10892833D01*
X11815606Y-10892833D02*
X11806082Y-10902357D01*
X11806082Y-10902357D02*
X11796558Y-10921405D01*
X11796558Y-10921405D02*
X11796558Y-10959500D01*
X11796558Y-10959500D02*
X11806082Y-10978548D01*
X11806082Y-10978548D02*
X11815606Y-10988071D01*
X11815606Y-10988071D02*
X11834653Y-10997595D01*
X11834653Y-10997595D02*
X11872748Y-10997595D01*
X11872748Y-10997595D02*
X11891796Y-10988071D01*
X11891796Y-10988071D02*
X11901320Y-10978548D01*
X11901320Y-10978548D02*
X11910844Y-10959500D01*
X11910844Y-10959500D02*
X11910844Y-10921405D01*
X11910844Y-10921405D02*
X11901320Y-10902357D01*
X11901320Y-10902357D02*
X11891796Y-10892833D01*
X11891796Y-10892833D02*
X11872748Y-10883309D01*
X11987034Y-10797595D02*
X11987034Y-10835690D01*
X12063225Y-10797595D02*
X12063225Y-10835690D01*
X12358463Y-11073786D02*
X12348939Y-11064262D01*
X12348939Y-11064262D02*
X12329891Y-11035690D01*
X12329891Y-11035690D02*
X12320368Y-11016643D01*
X12320368Y-11016643D02*
X12310844Y-10988071D01*
X12310844Y-10988071D02*
X12301320Y-10940452D01*
X12301320Y-10940452D02*
X12301320Y-10902357D01*
X12301320Y-10902357D02*
X12310844Y-10854738D01*
X12310844Y-10854738D02*
X12320368Y-10826167D01*
X12320368Y-10826167D02*
X12329891Y-10807119D01*
X12329891Y-10807119D02*
X12348939Y-10778548D01*
X12348939Y-10778548D02*
X12358463Y-10769024D01*
X12539415Y-10997595D02*
X12425129Y-10997595D01*
X12482272Y-10997595D02*
X12482272Y-10797595D01*
X12482272Y-10797595D02*
X12463225Y-10826167D01*
X12463225Y-10826167D02*
X12444177Y-10845214D01*
X12444177Y-10845214D02*
X12425129Y-10854738D01*
X12777510Y-10997595D02*
X12777510Y-10797595D01*
X12863225Y-10997595D02*
X12863225Y-10892833D01*
X12863225Y-10892833D02*
X12853701Y-10873786D01*
X12853701Y-10873786D02*
X12834653Y-10864262D01*
X12834653Y-10864262D02*
X12806082Y-10864262D01*
X12806082Y-10864262D02*
X12787034Y-10873786D01*
X12787034Y-10873786D02*
X12777510Y-10883309D01*
X12987034Y-10997595D02*
X12967987Y-10988071D01*
X12967987Y-10988071D02*
X12958463Y-10978548D01*
X12958463Y-10978548D02*
X12948939Y-10959500D01*
X12948939Y-10959500D02*
X12948939Y-10902357D01*
X12948939Y-10902357D02*
X12958463Y-10883309D01*
X12958463Y-10883309D02*
X12967987Y-10873786D01*
X12967987Y-10873786D02*
X12987034Y-10864262D01*
X12987034Y-10864262D02*
X13015606Y-10864262D01*
X13015606Y-10864262D02*
X13034653Y-10873786D01*
X13034653Y-10873786D02*
X13044177Y-10883309D01*
X13044177Y-10883309D02*
X13053701Y-10902357D01*
X13053701Y-10902357D02*
X13053701Y-10959500D01*
X13053701Y-10959500D02*
X13044177Y-10978548D01*
X13044177Y-10978548D02*
X13034653Y-10988071D01*
X13034653Y-10988071D02*
X13015606Y-10997595D01*
X13015606Y-10997595D02*
X12987034Y-10997595D01*
X13167987Y-10997595D02*
X13148939Y-10988071D01*
X13148939Y-10988071D02*
X13139415Y-10969024D01*
X13139415Y-10969024D02*
X13139415Y-10797595D01*
X13320368Y-10988071D02*
X13301320Y-10997595D01*
X13301320Y-10997595D02*
X13263225Y-10997595D01*
X13263225Y-10997595D02*
X13244177Y-10988071D01*
X13244177Y-10988071D02*
X13234653Y-10969024D01*
X13234653Y-10969024D02*
X13234653Y-10892833D01*
X13234653Y-10892833D02*
X13244177Y-10873786D01*
X13244177Y-10873786D02*
X13263225Y-10864262D01*
X13263225Y-10864262D02*
X13301320Y-10864262D01*
X13301320Y-10864262D02*
X13320368Y-10873786D01*
X13320368Y-10873786D02*
X13329891Y-10892833D01*
X13329891Y-10892833D02*
X13329891Y-10911881D01*
X13329891Y-10911881D02*
X13234653Y-10930929D01*
X13396558Y-11073786D02*
X13406082Y-11064262D01*
X13406082Y-11064262D02*
X13425130Y-11035690D01*
X13425130Y-11035690D02*
X13434653Y-11016643D01*
X13434653Y-11016643D02*
X13444177Y-10988071D01*
X13444177Y-10988071D02*
X13453701Y-10940452D01*
X13453701Y-10940452D02*
X13453701Y-10902357D01*
X13453701Y-10902357D02*
X13444177Y-10854738D01*
X13444177Y-10854738D02*
X13434653Y-10826167D01*
X13434653Y-10826167D02*
X13425130Y-10807119D01*
X13425130Y-10807119D02*
X13406082Y-10778548D01*
X13406082Y-10778548D02*
X13396558Y-10769024D01*
X13758463Y-11073786D02*
X13748939Y-11064262D01*
X13748939Y-11064262D02*
X13729891Y-11035690D01*
X13729891Y-11035690D02*
X13720368Y-11016643D01*
X13720368Y-11016643D02*
X13710844Y-10988071D01*
X13710844Y-10988071D02*
X13701320Y-10940452D01*
X13701320Y-10940452D02*
X13701320Y-10902357D01*
X13701320Y-10902357D02*
X13710844Y-10854738D01*
X13710844Y-10854738D02*
X13720368Y-10826167D01*
X13720368Y-10826167D02*
X13729891Y-10807119D01*
X13729891Y-10807119D02*
X13748939Y-10778548D01*
X13748939Y-10778548D02*
X13758463Y-10769024D01*
X13834653Y-10864262D02*
X13834653Y-10997595D01*
X13834653Y-10883309D02*
X13844177Y-10873786D01*
X13844177Y-10873786D02*
X13863225Y-10864262D01*
X13863225Y-10864262D02*
X13891796Y-10864262D01*
X13891796Y-10864262D02*
X13910844Y-10873786D01*
X13910844Y-10873786D02*
X13920368Y-10892833D01*
X13920368Y-10892833D02*
X13920368Y-10997595D01*
X14044177Y-10997595D02*
X14025130Y-10988071D01*
X14025130Y-10988071D02*
X14015606Y-10978548D01*
X14015606Y-10978548D02*
X14006082Y-10959500D01*
X14006082Y-10959500D02*
X14006082Y-10902357D01*
X14006082Y-10902357D02*
X14015606Y-10883309D01*
X14015606Y-10883309D02*
X14025130Y-10873786D01*
X14025130Y-10873786D02*
X14044177Y-10864262D01*
X14044177Y-10864262D02*
X14072749Y-10864262D01*
X14072749Y-10864262D02*
X14091796Y-10873786D01*
X14091796Y-10873786D02*
X14101320Y-10883309D01*
X14101320Y-10883309D02*
X14110844Y-10902357D01*
X14110844Y-10902357D02*
X14110844Y-10959500D01*
X14110844Y-10959500D02*
X14101320Y-10978548D01*
X14101320Y-10978548D02*
X14091796Y-10988071D01*
X14091796Y-10988071D02*
X14072749Y-10997595D01*
X14072749Y-10997595D02*
X14044177Y-10997595D01*
X14167987Y-10864262D02*
X14244177Y-10864262D01*
X14196558Y-10797595D02*
X14196558Y-10969024D01*
X14196558Y-10969024D02*
X14206082Y-10988071D01*
X14206082Y-10988071D02*
X14225130Y-10997595D01*
X14225130Y-10997595D02*
X14244177Y-10997595D01*
X14463225Y-10864262D02*
X14463225Y-11064262D01*
X14463225Y-10873786D02*
X14482272Y-10864262D01*
X14482272Y-10864262D02*
X14520368Y-10864262D01*
X14520368Y-10864262D02*
X14539415Y-10873786D01*
X14539415Y-10873786D02*
X14548939Y-10883309D01*
X14548939Y-10883309D02*
X14558463Y-10902357D01*
X14558463Y-10902357D02*
X14558463Y-10959500D01*
X14558463Y-10959500D02*
X14548939Y-10978548D01*
X14548939Y-10978548D02*
X14539415Y-10988071D01*
X14539415Y-10988071D02*
X14520368Y-10997595D01*
X14520368Y-10997595D02*
X14482272Y-10997595D01*
X14482272Y-10997595D02*
X14463225Y-10988071D01*
X14672749Y-10997595D02*
X14653701Y-10988071D01*
X14653701Y-10988071D02*
X14644177Y-10969024D01*
X14644177Y-10969024D02*
X14644177Y-10797595D01*
X14834653Y-10997595D02*
X14834653Y-10892833D01*
X14834653Y-10892833D02*
X14825130Y-10873786D01*
X14825130Y-10873786D02*
X14806082Y-10864262D01*
X14806082Y-10864262D02*
X14767987Y-10864262D01*
X14767987Y-10864262D02*
X14748939Y-10873786D01*
X14834653Y-10988071D02*
X14815606Y-10997595D01*
X14815606Y-10997595D02*
X14767987Y-10997595D01*
X14767987Y-10997595D02*
X14748939Y-10988071D01*
X14748939Y-10988071D02*
X14739415Y-10969024D01*
X14739415Y-10969024D02*
X14739415Y-10949976D01*
X14739415Y-10949976D02*
X14748939Y-10930929D01*
X14748939Y-10930929D02*
X14767987Y-10921405D01*
X14767987Y-10921405D02*
X14815606Y-10921405D01*
X14815606Y-10921405D02*
X14834653Y-10911881D01*
X14901320Y-10864262D02*
X14977511Y-10864262D01*
X14929892Y-10797595D02*
X14929892Y-10969024D01*
X14929892Y-10969024D02*
X14939415Y-10988071D01*
X14939415Y-10988071D02*
X14958463Y-10997595D01*
X14958463Y-10997595D02*
X14977511Y-10997595D01*
X15120368Y-10988071D02*
X15101320Y-10997595D01*
X15101320Y-10997595D02*
X15063225Y-10997595D01*
X15063225Y-10997595D02*
X15044177Y-10988071D01*
X15044177Y-10988071D02*
X15034653Y-10969024D01*
X15034653Y-10969024D02*
X15034653Y-10892833D01*
X15034653Y-10892833D02*
X15044177Y-10873786D01*
X15044177Y-10873786D02*
X15063225Y-10864262D01*
X15063225Y-10864262D02*
X15101320Y-10864262D01*
X15101320Y-10864262D02*
X15120368Y-10873786D01*
X15120368Y-10873786D02*
X15129892Y-10892833D01*
X15129892Y-10892833D02*
X15129892Y-10911881D01*
X15129892Y-10911881D02*
X15034653Y-10930929D01*
X15301320Y-10997595D02*
X15301320Y-10797595D01*
X15301320Y-10988071D02*
X15282273Y-10997595D01*
X15282273Y-10997595D02*
X15244177Y-10997595D01*
X15244177Y-10997595D02*
X15225130Y-10988071D01*
X15225130Y-10988071D02*
X15215606Y-10978548D01*
X15215606Y-10978548D02*
X15206082Y-10959500D01*
X15206082Y-10959500D02*
X15206082Y-10902357D01*
X15206082Y-10902357D02*
X15215606Y-10883309D01*
X15215606Y-10883309D02*
X15225130Y-10873786D01*
X15225130Y-10873786D02*
X15244177Y-10864262D01*
X15244177Y-10864262D02*
X15282273Y-10864262D01*
X15282273Y-10864262D02*
X15301320Y-10873786D01*
X15377511Y-11073786D02*
X15387034Y-11064262D01*
X15387034Y-11064262D02*
X15406082Y-11035690D01*
X15406082Y-11035690D02*
X15415606Y-11016643D01*
X15415606Y-11016643D02*
X15425130Y-10988071D01*
X15425130Y-10988071D02*
X15434653Y-10940452D01*
X15434653Y-10940452D02*
X15434653Y-10902357D01*
X15434653Y-10902357D02*
X15425130Y-10854738D01*
X15425130Y-10854738D02*
X15415606Y-10826167D01*
X15415606Y-10826167D02*
X15406082Y-10807119D01*
X15406082Y-10807119D02*
X15387034Y-10778548D01*
X15387034Y-10778548D02*
X15377511Y-10769024D01*
X8783400Y-11226111D02*
G75*
G03*
X8783400Y-11226111I-100000J0D01*
G01*
X9139415Y-11117595D02*
X9044177Y-11117595D01*
X9044177Y-11117595D02*
X9034653Y-11212833D01*
X9034653Y-11212833D02*
X9044177Y-11203309D01*
X9044177Y-11203309D02*
X9063224Y-11193786D01*
X9063224Y-11193786D02*
X9110844Y-11193786D01*
X9110844Y-11193786D02*
X9129891Y-11203309D01*
X9129891Y-11203309D02*
X9139415Y-11212833D01*
X9139415Y-11212833D02*
X9148939Y-11231881D01*
X9148939Y-11231881D02*
X9148939Y-11279500D01*
X9148939Y-11279500D02*
X9139415Y-11298547D01*
X9139415Y-11298547D02*
X9129891Y-11308071D01*
X9129891Y-11308071D02*
X9110844Y-11317595D01*
X9110844Y-11317595D02*
X9063224Y-11317595D01*
X9063224Y-11317595D02*
X9044177Y-11308071D01*
X9044177Y-11308071D02*
X9034653Y-11298547D01*
X9234653Y-11298547D02*
X9244177Y-11308071D01*
X9244177Y-11308071D02*
X9234653Y-11317595D01*
X9234653Y-11317595D02*
X9225129Y-11308071D01*
X9225129Y-11308071D02*
X9234653Y-11298547D01*
X9234653Y-11298547D02*
X9234653Y-11317595D01*
X9425129Y-11117595D02*
X9329891Y-11117595D01*
X9329891Y-11117595D02*
X9320367Y-11212833D01*
X9320367Y-11212833D02*
X9329891Y-11203309D01*
X9329891Y-11203309D02*
X9348939Y-11193786D01*
X9348939Y-11193786D02*
X9396558Y-11193786D01*
X9396558Y-11193786D02*
X9415605Y-11203309D01*
X9415605Y-11203309D02*
X9425129Y-11212833D01*
X9425129Y-11212833D02*
X9434653Y-11231881D01*
X9434653Y-11231881D02*
X9434653Y-11279500D01*
X9434653Y-11279500D02*
X9425129Y-11298547D01*
X9425129Y-11298547D02*
X9415605Y-11308071D01*
X9415605Y-11308071D02*
X9396558Y-11317595D01*
X9396558Y-11317595D02*
X9348939Y-11317595D01*
X9348939Y-11317595D02*
X9329891Y-11308071D01*
X9329891Y-11308071D02*
X9320367Y-11298547D01*
X9558463Y-11117595D02*
X9577510Y-11117595D01*
X9577510Y-11117595D02*
X9596558Y-11127119D01*
X9596558Y-11127119D02*
X9606082Y-11136643D01*
X9606082Y-11136643D02*
X9615605Y-11155690D01*
X9615605Y-11155690D02*
X9625129Y-11193786D01*
X9625129Y-11193786D02*
X9625129Y-11241405D01*
X9625129Y-11241405D02*
X9615605Y-11279500D01*
X9615605Y-11279500D02*
X9606082Y-11298547D01*
X9606082Y-11298547D02*
X9596558Y-11308071D01*
X9596558Y-11308071D02*
X9577510Y-11317595D01*
X9577510Y-11317595D02*
X9558463Y-11317595D01*
X9558463Y-11317595D02*
X9539415Y-11308071D01*
X9539415Y-11308071D02*
X9529891Y-11298547D01*
X9529891Y-11298547D02*
X9520367Y-11279500D01*
X9520367Y-11279500D02*
X9510844Y-11241405D01*
X9510844Y-11241405D02*
X9510844Y-11193786D01*
X9510844Y-11193786D02*
X9520367Y-11155690D01*
X9520367Y-11155690D02*
X9529891Y-11136643D01*
X9529891Y-11136643D02*
X9539415Y-11127119D01*
X9539415Y-11127119D02*
X9558463Y-11117595D01*
X9748939Y-11117595D02*
X9767986Y-11117595D01*
X9767986Y-11117595D02*
X9787034Y-11127119D01*
X9787034Y-11127119D02*
X9796558Y-11136643D01*
X9796558Y-11136643D02*
X9806082Y-11155690D01*
X9806082Y-11155690D02*
X9815605Y-11193786D01*
X9815605Y-11193786D02*
X9815605Y-11241405D01*
X9815605Y-11241405D02*
X9806082Y-11279500D01*
X9806082Y-11279500D02*
X9796558Y-11298547D01*
X9796558Y-11298547D02*
X9787034Y-11308071D01*
X9787034Y-11308071D02*
X9767986Y-11317595D01*
X9767986Y-11317595D02*
X9748939Y-11317595D01*
X9748939Y-11317595D02*
X9729891Y-11308071D01*
X9729891Y-11308071D02*
X9720367Y-11298547D01*
X9720367Y-11298547D02*
X9710844Y-11279500D01*
X9710844Y-11279500D02*
X9701320Y-11241405D01*
X9701320Y-11241405D02*
X9701320Y-11193786D01*
X9701320Y-11193786D02*
X9710844Y-11155690D01*
X9710844Y-11155690D02*
X9720367Y-11136643D01*
X9720367Y-11136643D02*
X9729891Y-11127119D01*
X9729891Y-11127119D02*
X9748939Y-11117595D01*
X9901320Y-11317595D02*
X9901320Y-11184262D01*
X9901320Y-11203309D02*
X9910844Y-11193786D01*
X9910844Y-11193786D02*
X9929891Y-11184262D01*
X9929891Y-11184262D02*
X9958463Y-11184262D01*
X9958463Y-11184262D02*
X9977510Y-11193786D01*
X9977510Y-11193786D02*
X9987034Y-11212833D01*
X9987034Y-11212833D02*
X9987034Y-11317595D01*
X9987034Y-11212833D02*
X9996558Y-11193786D01*
X9996558Y-11193786D02*
X10015605Y-11184262D01*
X10015605Y-11184262D02*
X10044177Y-11184262D01*
X10044177Y-11184262D02*
X10063225Y-11193786D01*
X10063225Y-11193786D02*
X10072748Y-11212833D01*
X10072748Y-11212833D02*
X10072748Y-11317595D01*
X10167986Y-11317595D02*
X10167986Y-11184262D01*
X10167986Y-11203309D02*
X10177510Y-11193786D01*
X10177510Y-11193786D02*
X10196558Y-11184262D01*
X10196558Y-11184262D02*
X10225129Y-11184262D01*
X10225129Y-11184262D02*
X10244177Y-11193786D01*
X10244177Y-11193786D02*
X10253701Y-11212833D01*
X10253701Y-11212833D02*
X10253701Y-11317595D01*
X10253701Y-11212833D02*
X10263225Y-11193786D01*
X10263225Y-11193786D02*
X10282272Y-11184262D01*
X10282272Y-11184262D02*
X10310844Y-11184262D01*
X10310844Y-11184262D02*
X10329891Y-11193786D01*
X10329891Y-11193786D02*
X10339415Y-11212833D01*
X10339415Y-11212833D02*
X10339415Y-11317595D01*
X10729891Y-11108071D02*
X10558463Y-11365214D01*
X10987034Y-11117595D02*
X11006082Y-11117595D01*
X11006082Y-11117595D02*
X11025129Y-11127119D01*
X11025129Y-11127119D02*
X11034653Y-11136643D01*
X11034653Y-11136643D02*
X11044177Y-11155690D01*
X11044177Y-11155690D02*
X11053701Y-11193786D01*
X11053701Y-11193786D02*
X11053701Y-11241405D01*
X11053701Y-11241405D02*
X11044177Y-11279500D01*
X11044177Y-11279500D02*
X11034653Y-11298547D01*
X11034653Y-11298547D02*
X11025129Y-11308071D01*
X11025129Y-11308071D02*
X11006082Y-11317595D01*
X11006082Y-11317595D02*
X10987034Y-11317595D01*
X10987034Y-11317595D02*
X10967987Y-11308071D01*
X10967987Y-11308071D02*
X10958463Y-11298547D01*
X10958463Y-11298547D02*
X10948939Y-11279500D01*
X10948939Y-11279500D02*
X10939415Y-11241405D01*
X10939415Y-11241405D02*
X10939415Y-11193786D01*
X10939415Y-11193786D02*
X10948939Y-11155690D01*
X10948939Y-11155690D02*
X10958463Y-11136643D01*
X10958463Y-11136643D02*
X10967987Y-11127119D01*
X10967987Y-11127119D02*
X10987034Y-11117595D01*
X11139415Y-11298547D02*
X11148939Y-11308071D01*
X11148939Y-11308071D02*
X11139415Y-11317595D01*
X11139415Y-11317595D02*
X11129891Y-11308071D01*
X11129891Y-11308071D02*
X11139415Y-11298547D01*
X11139415Y-11298547D02*
X11139415Y-11317595D01*
X11225129Y-11136643D02*
X11234653Y-11127119D01*
X11234653Y-11127119D02*
X11253701Y-11117595D01*
X11253701Y-11117595D02*
X11301320Y-11117595D01*
X11301320Y-11117595D02*
X11320367Y-11127119D01*
X11320367Y-11127119D02*
X11329891Y-11136643D01*
X11329891Y-11136643D02*
X11339415Y-11155690D01*
X11339415Y-11155690D02*
X11339415Y-11174738D01*
X11339415Y-11174738D02*
X11329891Y-11203309D01*
X11329891Y-11203309D02*
X11215606Y-11317595D01*
X11215606Y-11317595D02*
X11339415Y-11317595D01*
X11529891Y-11317595D02*
X11415606Y-11317595D01*
X11472748Y-11317595D02*
X11472748Y-11117595D01*
X11472748Y-11117595D02*
X11453701Y-11146167D01*
X11453701Y-11146167D02*
X11434653Y-11165214D01*
X11434653Y-11165214D02*
X11415606Y-11174738D01*
X11701320Y-11117595D02*
X11663225Y-11117595D01*
X11663225Y-11117595D02*
X11644177Y-11127119D01*
X11644177Y-11127119D02*
X11634653Y-11136643D01*
X11634653Y-11136643D02*
X11615606Y-11165214D01*
X11615606Y-11165214D02*
X11606082Y-11203309D01*
X11606082Y-11203309D02*
X11606082Y-11279500D01*
X11606082Y-11279500D02*
X11615606Y-11298547D01*
X11615606Y-11298547D02*
X11625129Y-11308071D01*
X11625129Y-11308071D02*
X11644177Y-11317595D01*
X11644177Y-11317595D02*
X11682272Y-11317595D01*
X11682272Y-11317595D02*
X11701320Y-11308071D01*
X11701320Y-11308071D02*
X11710844Y-11298547D01*
X11710844Y-11298547D02*
X11720367Y-11279500D01*
X11720367Y-11279500D02*
X11720367Y-11231881D01*
X11720367Y-11231881D02*
X11710844Y-11212833D01*
X11710844Y-11212833D02*
X11701320Y-11203309D01*
X11701320Y-11203309D02*
X11682272Y-11193786D01*
X11682272Y-11193786D02*
X11644177Y-11193786D01*
X11644177Y-11193786D02*
X11625129Y-11203309D01*
X11625129Y-11203309D02*
X11615606Y-11212833D01*
X11615606Y-11212833D02*
X11606082Y-11231881D01*
X11901320Y-11117595D02*
X11806082Y-11117595D01*
X11806082Y-11117595D02*
X11796558Y-11212833D01*
X11796558Y-11212833D02*
X11806082Y-11203309D01*
X11806082Y-11203309D02*
X11825129Y-11193786D01*
X11825129Y-11193786D02*
X11872748Y-11193786D01*
X11872748Y-11193786D02*
X11891796Y-11203309D01*
X11891796Y-11203309D02*
X11901320Y-11212833D01*
X11901320Y-11212833D02*
X11910844Y-11231881D01*
X11910844Y-11231881D02*
X11910844Y-11279500D01*
X11910844Y-11279500D02*
X11901320Y-11298547D01*
X11901320Y-11298547D02*
X11891796Y-11308071D01*
X11891796Y-11308071D02*
X11872748Y-11317595D01*
X11872748Y-11317595D02*
X11825129Y-11317595D01*
X11825129Y-11317595D02*
X11806082Y-11308071D01*
X11806082Y-11308071D02*
X11796558Y-11298547D01*
X11987034Y-11117595D02*
X11987034Y-11155690D01*
X12063225Y-11117595D02*
X12063225Y-11155690D01*
X12358463Y-11393786D02*
X12348939Y-11384262D01*
X12348939Y-11384262D02*
X12329891Y-11355690D01*
X12329891Y-11355690D02*
X12320368Y-11336643D01*
X12320368Y-11336643D02*
X12310844Y-11308071D01*
X12310844Y-11308071D02*
X12301320Y-11260452D01*
X12301320Y-11260452D02*
X12301320Y-11222357D01*
X12301320Y-11222357D02*
X12310844Y-11174738D01*
X12310844Y-11174738D02*
X12320368Y-11146167D01*
X12320368Y-11146167D02*
X12329891Y-11127119D01*
X12329891Y-11127119D02*
X12348939Y-11098548D01*
X12348939Y-11098548D02*
X12358463Y-11089024D01*
X12539415Y-11317595D02*
X12425129Y-11317595D01*
X12482272Y-11317595D02*
X12482272Y-11117595D01*
X12482272Y-11117595D02*
X12463225Y-11146167D01*
X12463225Y-11146167D02*
X12444177Y-11165214D01*
X12444177Y-11165214D02*
X12425129Y-11174738D01*
X12777510Y-11317595D02*
X12777510Y-11117595D01*
X12863225Y-11317595D02*
X12863225Y-11212833D01*
X12863225Y-11212833D02*
X12853701Y-11193786D01*
X12853701Y-11193786D02*
X12834653Y-11184262D01*
X12834653Y-11184262D02*
X12806082Y-11184262D01*
X12806082Y-11184262D02*
X12787034Y-11193786D01*
X12787034Y-11193786D02*
X12777510Y-11203309D01*
X12987034Y-11317595D02*
X12967987Y-11308071D01*
X12967987Y-11308071D02*
X12958463Y-11298547D01*
X12958463Y-11298547D02*
X12948939Y-11279500D01*
X12948939Y-11279500D02*
X12948939Y-11222357D01*
X12948939Y-11222357D02*
X12958463Y-11203309D01*
X12958463Y-11203309D02*
X12967987Y-11193786D01*
X12967987Y-11193786D02*
X12987034Y-11184262D01*
X12987034Y-11184262D02*
X13015606Y-11184262D01*
X13015606Y-11184262D02*
X13034653Y-11193786D01*
X13034653Y-11193786D02*
X13044177Y-11203309D01*
X13044177Y-11203309D02*
X13053701Y-11222357D01*
X13053701Y-11222357D02*
X13053701Y-11279500D01*
X13053701Y-11279500D02*
X13044177Y-11298547D01*
X13044177Y-11298547D02*
X13034653Y-11308071D01*
X13034653Y-11308071D02*
X13015606Y-11317595D01*
X13015606Y-11317595D02*
X12987034Y-11317595D01*
X13167987Y-11317595D02*
X13148939Y-11308071D01*
X13148939Y-11308071D02*
X13139415Y-11289024D01*
X13139415Y-11289024D02*
X13139415Y-11117595D01*
X13320368Y-11308071D02*
X13301320Y-11317595D01*
X13301320Y-11317595D02*
X13263225Y-11317595D01*
X13263225Y-11317595D02*
X13244177Y-11308071D01*
X13244177Y-11308071D02*
X13234653Y-11289024D01*
X13234653Y-11289024D02*
X13234653Y-11212833D01*
X13234653Y-11212833D02*
X13244177Y-11193786D01*
X13244177Y-11193786D02*
X13263225Y-11184262D01*
X13263225Y-11184262D02*
X13301320Y-11184262D01*
X13301320Y-11184262D02*
X13320368Y-11193786D01*
X13320368Y-11193786D02*
X13329891Y-11212833D01*
X13329891Y-11212833D02*
X13329891Y-11231881D01*
X13329891Y-11231881D02*
X13234653Y-11250928D01*
X13396558Y-11393786D02*
X13406082Y-11384262D01*
X13406082Y-11384262D02*
X13425130Y-11355690D01*
X13425130Y-11355690D02*
X13434653Y-11336643D01*
X13434653Y-11336643D02*
X13444177Y-11308071D01*
X13444177Y-11308071D02*
X13453701Y-11260452D01*
X13453701Y-11260452D02*
X13453701Y-11222357D01*
X13453701Y-11222357D02*
X13444177Y-11174738D01*
X13444177Y-11174738D02*
X13434653Y-11146167D01*
X13434653Y-11146167D02*
X13425130Y-11127119D01*
X13425130Y-11127119D02*
X13406082Y-11098548D01*
X13406082Y-11098548D02*
X13396558Y-11089024D01*
X13758463Y-11393786D02*
X13748939Y-11384262D01*
X13748939Y-11384262D02*
X13729891Y-11355690D01*
X13729891Y-11355690D02*
X13720368Y-11336643D01*
X13720368Y-11336643D02*
X13710844Y-11308071D01*
X13710844Y-11308071D02*
X13701320Y-11260452D01*
X13701320Y-11260452D02*
X13701320Y-11222357D01*
X13701320Y-11222357D02*
X13710844Y-11174738D01*
X13710844Y-11174738D02*
X13720368Y-11146167D01*
X13720368Y-11146167D02*
X13729891Y-11127119D01*
X13729891Y-11127119D02*
X13748939Y-11098548D01*
X13748939Y-11098548D02*
X13758463Y-11089024D01*
X13834653Y-11184262D02*
X13834653Y-11317595D01*
X13834653Y-11203309D02*
X13844177Y-11193786D01*
X13844177Y-11193786D02*
X13863225Y-11184262D01*
X13863225Y-11184262D02*
X13891796Y-11184262D01*
X13891796Y-11184262D02*
X13910844Y-11193786D01*
X13910844Y-11193786D02*
X13920368Y-11212833D01*
X13920368Y-11212833D02*
X13920368Y-11317595D01*
X14044177Y-11317595D02*
X14025130Y-11308071D01*
X14025130Y-11308071D02*
X14015606Y-11298547D01*
X14015606Y-11298547D02*
X14006082Y-11279500D01*
X14006082Y-11279500D02*
X14006082Y-11222357D01*
X14006082Y-11222357D02*
X14015606Y-11203309D01*
X14015606Y-11203309D02*
X14025130Y-11193786D01*
X14025130Y-11193786D02*
X14044177Y-11184262D01*
X14044177Y-11184262D02*
X14072749Y-11184262D01*
X14072749Y-11184262D02*
X14091796Y-11193786D01*
X14091796Y-11193786D02*
X14101320Y-11203309D01*
X14101320Y-11203309D02*
X14110844Y-11222357D01*
X14110844Y-11222357D02*
X14110844Y-11279500D01*
X14110844Y-11279500D02*
X14101320Y-11298547D01*
X14101320Y-11298547D02*
X14091796Y-11308071D01*
X14091796Y-11308071D02*
X14072749Y-11317595D01*
X14072749Y-11317595D02*
X14044177Y-11317595D01*
X14167987Y-11184262D02*
X14244177Y-11184262D01*
X14196558Y-11117595D02*
X14196558Y-11289024D01*
X14196558Y-11289024D02*
X14206082Y-11308071D01*
X14206082Y-11308071D02*
X14225130Y-11317595D01*
X14225130Y-11317595D02*
X14244177Y-11317595D01*
X14463225Y-11184262D02*
X14463225Y-11384262D01*
X14463225Y-11193786D02*
X14482272Y-11184262D01*
X14482272Y-11184262D02*
X14520368Y-11184262D01*
X14520368Y-11184262D02*
X14539415Y-11193786D01*
X14539415Y-11193786D02*
X14548939Y-11203309D01*
X14548939Y-11203309D02*
X14558463Y-11222357D01*
X14558463Y-11222357D02*
X14558463Y-11279500D01*
X14558463Y-11279500D02*
X14548939Y-11298547D01*
X14548939Y-11298547D02*
X14539415Y-11308071D01*
X14539415Y-11308071D02*
X14520368Y-11317595D01*
X14520368Y-11317595D02*
X14482272Y-11317595D01*
X14482272Y-11317595D02*
X14463225Y-11308071D01*
X14672749Y-11317595D02*
X14653701Y-11308071D01*
X14653701Y-11308071D02*
X14644177Y-11289024D01*
X14644177Y-11289024D02*
X14644177Y-11117595D01*
X14834653Y-11317595D02*
X14834653Y-11212833D01*
X14834653Y-11212833D02*
X14825130Y-11193786D01*
X14825130Y-11193786D02*
X14806082Y-11184262D01*
X14806082Y-11184262D02*
X14767987Y-11184262D01*
X14767987Y-11184262D02*
X14748939Y-11193786D01*
X14834653Y-11308071D02*
X14815606Y-11317595D01*
X14815606Y-11317595D02*
X14767987Y-11317595D01*
X14767987Y-11317595D02*
X14748939Y-11308071D01*
X14748939Y-11308071D02*
X14739415Y-11289024D01*
X14739415Y-11289024D02*
X14739415Y-11269976D01*
X14739415Y-11269976D02*
X14748939Y-11250928D01*
X14748939Y-11250928D02*
X14767987Y-11241405D01*
X14767987Y-11241405D02*
X14815606Y-11241405D01*
X14815606Y-11241405D02*
X14834653Y-11231881D01*
X14901320Y-11184262D02*
X14977511Y-11184262D01*
X14929892Y-11117595D02*
X14929892Y-11289024D01*
X14929892Y-11289024D02*
X14939415Y-11308071D01*
X14939415Y-11308071D02*
X14958463Y-11317595D01*
X14958463Y-11317595D02*
X14977511Y-11317595D01*
X15120368Y-11308071D02*
X15101320Y-11317595D01*
X15101320Y-11317595D02*
X15063225Y-11317595D01*
X15063225Y-11317595D02*
X15044177Y-11308071D01*
X15044177Y-11308071D02*
X15034653Y-11289024D01*
X15034653Y-11289024D02*
X15034653Y-11212833D01*
X15034653Y-11212833D02*
X15044177Y-11193786D01*
X15044177Y-11193786D02*
X15063225Y-11184262D01*
X15063225Y-11184262D02*
X15101320Y-11184262D01*
X15101320Y-11184262D02*
X15120368Y-11193786D01*
X15120368Y-11193786D02*
X15129892Y-11212833D01*
X15129892Y-11212833D02*
X15129892Y-11231881D01*
X15129892Y-11231881D02*
X15034653Y-11250928D01*
X15301320Y-11317595D02*
X15301320Y-11117595D01*
X15301320Y-11308071D02*
X15282273Y-11317595D01*
X15282273Y-11317595D02*
X15244177Y-11317595D01*
X15244177Y-11317595D02*
X15225130Y-11308071D01*
X15225130Y-11308071D02*
X15215606Y-11298547D01*
X15215606Y-11298547D02*
X15206082Y-11279500D01*
X15206082Y-11279500D02*
X15206082Y-11222357D01*
X15206082Y-11222357D02*
X15215606Y-11203309D01*
X15215606Y-11203309D02*
X15225130Y-11193786D01*
X15225130Y-11193786D02*
X15244177Y-11184262D01*
X15244177Y-11184262D02*
X15282273Y-11184262D01*
X15282273Y-11184262D02*
X15301320Y-11193786D01*
X15377511Y-11393786D02*
X15387034Y-11384262D01*
X15387034Y-11384262D02*
X15406082Y-11355690D01*
X15406082Y-11355690D02*
X15415606Y-11336643D01*
X15415606Y-11336643D02*
X15425130Y-11308071D01*
X15425130Y-11308071D02*
X15434653Y-11260452D01*
X15434653Y-11260452D02*
X15434653Y-11222357D01*
X15434653Y-11222357D02*
X15425130Y-11174738D01*
X15425130Y-11174738D02*
X15415606Y-11146167D01*
X15415606Y-11146167D02*
X15406082Y-11127119D01*
X15406082Y-11127119D02*
X15387034Y-11098548D01*
X15387034Y-11098548D02*
X15377511Y-11089024D01*
M02*
